Second Presentation
…
What I’m considering doing next is separating the result column by the outcome (W/L) and the final score (and maybe separate that into their own separate columns), which I assume should be relatively easy. I am also considering grouping the games by team and/or season to see how many penalties, fumbles, and interceptions they accumulated, and compare each one of them with the likelihood of them winning. In addition, I’ll have to look into whether the offense or defense accumulates more penalties in a game, based off checking the play-by-play data. These are just preliminary, as my final findings/concepts may change later on in this project.

One concern that I have is not having datasets prior to 2019 being available. Is there a logistical reason behind this? How would tracking down other datasets be like? Would they be much easier to merge/join?

===== Update (12/3) =====

So far, I haven’t had much time to work on this project over the past few days (long story short, poor time management and overall unsureness), but I am considering constructing a model (or two) that focuses on the Z-scores of a team based on their predicted likelihood of winning off their penalties, fumbles and interceptions. I still have yet to find/access any datasets prior to 2019, so I’m hoping to be able to construct something out of datasets going as far back as 2013 (i.e., the last ten seasons), to see how certain teams have improved over the last decade.

===== Update (12/10) =====

Code

football_logs_2013_to_2023

# A tibble: 17,470 × 55
   Season     Game Date       HomeAway Opponent     Result PassingCmp PassingAtt
   <chr>     <dbl> <date>     <chr>    <chr>        <chr>       <dbl>      <dbl>
 1 2013-2014     1 2013-09-07 <NA>     San Jose St… W (34…         17         27
 2 2013-2014     2 2013-09-14 @        Army         W (34…         13         22
 3 2013-2014     3 2013-09-21 <NA>     Arizona Sta… W (42…         11         17
 4 2013-2014     4 2013-09-28 N        Washington … W (55…         17         28
 5 2013-2014     5 2013-10-05 <NA>     Washington   W (31…         12         20
 6 2013-2014     6 2013-10-12 @        Utah         L (21…         15         27
 7 2013-2014     7 2013-10-19 <NA>     UCLA         W (24…         18         25
 8 2013-2014     8 2013-10-26 @        Oregon State W (20…          8         18
 9 2013-2014     9 2013-11-07 <NA>     Oregon       W (26…          7         13
10 2013-2014    10 2013-11-16 @        Southern Ca… L (17…         14         25
# ℹ 17,460 more rows
# ℹ 47 more variables: PassingPct <dbl>, PassingYds <dbl>, PassingTD <dbl>,
#   RushingAtt <dbl>, RushingYds <dbl>, RushingAvg <dbl>, RushingTD <dbl>,
#   OffensivePlays <dbl>, OffensiveYards <dbl>, OffenseAvg <dbl>,
#   FirstDownPass <dbl>, FirstDownRush <dbl>, FirstDownPen <dbl>,
#   FirstDownTotal <dbl>, Penalties <dbl>, PenaltyYds <dbl>, Fumbles <dbl>,
#   Interceptions <dbl>, TotalTurnovers <dbl>, TeamFull <chr>, TeamURL <chr>, …
…
football_Zscore |> arrange(Team, desc(TotalZscore))

# A tibble: 1,420 × 20
# Groups:   Season, Conference [121]
   Season    Conference           Team  PenaltiesAvg FumblesAvg InterceptionsAvg
   <chr>     <chr>                <chr>        <dbl>      <dbl>            <dbl>
 1 2017-2018 Mountain West Confe… Air …         4         1.17             0.5  
 2 2023-2024 Mountain West Confe… Air …         3.25      0.917            0.5  
 3 2013-2014 Mountain West Confe… Air …         4.42      0.75             0.333
 4 2015-2016 Mountain West Confe… Air …         3.79      0.786            0.857
 5 2018-2019 Mountain West Confe… Air …         4.5       0.833            0.417
 6 2019-2020 Mountain West Confe… Air …         3.23      0.923            0.462
 7 2020-2021 Mountain West Confe… Air …         4.5       0.833            0.5  
 8 2022-2023 Mountain West Confe… Air …         3.92      0.846            0.154
 9 2014-2015 Mountain West Confe… Air …         3.54      1                0.308
10 2016-2017 Mountain West Confe… Air …         5.15      0.692            0.615
# ℹ 1,410 more rows
# ℹ 14 more variables: TotalTurnoversAvg <dbl>, DefPenaltiesAvg <dbl>,
#   DefFumblesAvg <dbl>, DefInterceptionsAvg <dbl>, DefTotalTurnoversAvg <dbl>,
#   PenaltiesZscore <dbl>, FumblesZscore <dbl>, InterceptionsZscore <dbl>,
#   TotalTurnoversZscore <dbl>, DefPenaltiesZscore <dbl>,
#   DefFumblesZscore <dbl>, DefInterceptionsZscore <dbl>,
#   DefTotalTurnoversZscore <dbl>, TotalZscore <dbl>

Code

football_Zscore |> arrange(desc(TotalZscore))

# A tibble: 1,420 × 20
# Groups:   Season, Conference [121]
   Season    Conference           Team  PenaltiesAvg FumblesAvg InterceptionsAvg
   <chr>     <chr>                <chr>        <dbl>      <dbl>            <dbl>
 1 2017-2018 Conference USA       Rice          4.42      1.08              1.33
 2 2022-2023 Big Ten Conference   Nort…         4.58      1.17              1.42
 3 2016-2017 Conference USA       Sout…         7.46      1.23              1.23
 4 2019-2020 Mid-American Confer… Akron         6.67      1                 1.17
 5 2021-2022 Pac-12 Conference    Ariz…         8.67      0.417             1.5 
 6 2013-2014 Big Ten Conference   Nebr…         5.92      1.23              1   
 7 2019-2020 Big Ten Conference   Rutg…         6.33      0.667             1.25
 8 2020-2021 Big Ten Conference   Mary…         8.8       0.4               1.8 
 9 2018-2019 Atlantic Coast Conf… Flor…         9.17      1.08              1.08
10 2015-2016 American Athletic C… Cinc…         8         0.846             1.69
# ℹ 1,410 more rows
# ℹ 14 more variables: TotalTurnoversAvg <dbl>, DefPenaltiesAvg <dbl>,
#   DefFumblesAvg <dbl>, DefInterceptionsAvg <dbl>, DefTotalTurnoversAvg <dbl>,
#   PenaltiesZscore <dbl>, FumblesZscore <dbl>, InterceptionsZscore <dbl>,
#   TotalTurnoversZscore <dbl>, DefPenaltiesZscore <dbl>,
#   DefFumblesZscore <dbl>, DefInterceptionsZscore <dbl>,
#   DefTotalTurnoversZscore <dbl>, TotalZscore <dbl>
…
football_team_Zscore |> arrange(desc(TotalZscore))

# A tibble: 175 × 19
# Groups:   Conference [12]
   Conference   Team  PenaltiesAvg FumblesAvg InterceptionsAvg TotalTurnoversAvg
   <chr>        <chr>        <dbl>      <dbl>            <dbl>             <dbl>
 1 Mid-America… Bowl…         7.24      0.621            1.07               1.69
 2 Big Ten Con… Nebr…         6         0.773            1.07               1.84
 3 Mountain We… Hawa…         6.67      0.787            1.12               1.91
 4 Conference … Sout…         6.55      0.945            1.2                2.15
 5 Sun Belt Co… West…         6.17      1.25             1.33               2.58
 6 Pacific-12 … UCLA          6.75      0.833            1                  1.83
 7 Mountain We… Colo…         6.65      0.685            0.923              1.61
 8 American At… Rutg…         6.46      0.615            1.69               2.31
 9 Conference … Tulsa         3.08      1.25             1.58               2.83
10 Big 12 Conf… Cinc…         5.67      0.5              0.917              1.42
# ℹ 165 more rows
# ℹ 13 more variables: DefPenaltiesAvg <dbl>, DefFumblesAvg <dbl>,
#   DefInterceptionsAvg <dbl>, DefTotalTurnoversAvg <dbl>,
#   PenaltiesZscore <dbl>, FumblesZscore <dbl>, InterceptionsZscore <dbl>,
#   TotalTurnoversZscore <dbl>, DefPenaltiesZscore <dbl>,
#   DefFumblesZscore <dbl>, DefInterceptionsZscore <dbl>,
#   DefTotalTurnoversZscore <dbl>, TotalZscore <dbl>
…
